<?xml version="1.0" encoding="UTF-8" standalone="no"?>
<svg width="21px" height="19px" viewBox="0 0 21 19" version="1.1" xmlns="http://www.w3.org/2000/svg" xmlns:xlink="http://www.w3.org/1999/xlink">
    <!-- Generator: Sketch 39.1 (31720) - http://www.bohemiancoding.com/sketch -->
    <title>Page 1</title>
    <desc>Created with Sketch.</desc>
    <defs>
        <polygon id="path-1" points="10.4781078 18.9533636 20.9562128 18.9533636 20.9562128 2.58379177e-15 10.4781078 0 2.82286578e-06 0 2.82286578e-06 18.9533636 10.4781078 18.9533636"></polygon>
    </defs>
    <g id="Page-1" stroke="none" stroke-width="1" fill="none" fill-rule="evenodd">
        <g id="Dashboard" transform="translate(-248.000000, -679.000000)" fill="#263746">
            <g id="Buttom-Nav" transform="translate(0.000000, 663.000000)">
                <g id="Page-1" transform="translate(248.000000, 16.000000)">
                    <path d="M0.675431489,0.0986363636 L1.35574213,1.02127273 L1.28863149,0 L2.00272085,0.955909091 C6.11818468,0.198272727 7.54296766,5.14209091 7.54296766,5.14209091 C9.68139319,7.18609091 12.889657,6.49354545 12.889657,6.49354545 C15.5475421,5.99890909 16.9382783,7.81190909 16.9382783,7.81190909 C19.6589847,7.97636364 19.7899889,11.2724545 19.7899889,11.2724545 C19.7562102,13.0864545 20.9562485,14.2062727 20.9562485,14.2062727 C18.2989889,14.2395455 17.8457464,10.7790909 17.8457464,10.7790909 C17.6185889,8.17436364 17.1321932,8.56954545 17.1321932,8.56954545 C17.6518315,10.6130909 15.0911719,12.6888182 15.0911719,12.6888182 C15.1894698,13.0187273 15.6436953,13.1176364 15.6436953,13.1176364 C16.8739379,13.8097273 16.1619038,14.0736364 16.1619038,14.0736364 C15.741457,14.7673636 15.124057,14.6351818 15.124057,14.6351818 C15.1884868,15.4260909 14.3459847,16.0193636 14.3459847,16.0193636 C13.8605719,17.2058182 12.8247804,18.0957273 12.8247804,18.0957273 C12.6309549,18.0957273 12.5331932,18.3267273 12.5331932,18.3267273 C12.5331932,18.9533636 11.7225038,18.9533636 11.7225038,18.9533636 C11.1699804,18.9533636 11.1070698,18.7879091 11.1070698,18.7879091 C11.2042953,17.9636364 12.4027251,17.7335455 12.4027251,17.7335455 C12.888674,17.3714545 12.5331932,17.2714545 12.5331932,17.2714545 C11.7873804,17.4686364 12.241606,16.4143636 12.241606,16.4143636 C12.2744017,15.1628182 13.2774868,14.8979091 13.2774868,14.8979091 C13.6984698,14.7985455 13.7317123,14.5685455 13.7317123,14.5685455 C13.0830357,14.0080909 12.7919847,12.2279091 12.7919847,12.2279091 C12.4027251,12.2935455 11.8539549,11.8658182 11.8539549,11.8658182 C9.87638043,12.9200909 6.05330809,11.6347273 6.05330809,11.6347273 C6.05330809,12.5900909 5.56709106,13.8764545 5.56709106,13.8764545 C5.79317617,16.2171818 5.50212511,17.0403636 5.50212511,17.0403636 C5.24306553,17.6335455 5.21080596,17.6013636 5.21080596,17.6013636 C5.69595064,18.2601818 5.01644426,18.3590909 5.01644426,18.3590909 L4.40109957,18.3590909 C3.36378894,18.2924545 4.01210809,17.7658182 4.01210809,17.7658182 C5.01546128,17.1070909 4.88678043,16.2505455 4.88678043,16.2505455 C4.8548783,15.7228182 4.72387404,13.2832727 4.72387404,13.2832727 C4.65917617,12.229 4.30369532,11.8974545 4.30369532,11.8974545 C3.94660596,12.3923636 1.84178043,12.6224545 1.84178043,12.6224545 C1.1612017,13.8416364 2.74817617,14.9953636 2.74817617,14.9953636 C3.04029957,14.4676364 3.49452511,15.0942727 3.49452511,15.0942727 C3.94669532,16.0507273 3.65510809,16.0829091 3.65510809,16.0829091 C3.26629532,16.1157273 2.61958468,15.5230909 2.61958468,15.5230909 C1.38835915,15.2598182 0.73896766,13.0169091 0.73896766,13.0169091 C0.349886809,11.7971818 2.23059319,11.5016364 2.23059319,11.5016364 C3.78611234,10.9084545 3.20249106,10.4129091 3.20249106,10.4129091 C2.32746128,9.12781818 3.04029957,8.36890909 3.04029957,8.36890909 C3.39738894,7.97336364 3.3638783,7.21527273 3.3638783,7.21527273 C2.71573787,5.79772727 2.74826553,4.05136364 2.74826553,4.05136364 C2.55515489,4.77654545 1.6789634,5.33672727 1.6789634,5.33672727 C1.6789634,5.33672727 1.87305702,4.08445455 1.6789634,5.46863636 C1.48513787,6.85272727 0.382771915,6.12709091 0.382771915,6.12709091 C-0.39449617,5.63409091 0.252571915,4.41409091 0.252571915,4.41409091 C0.219061277,3.06209091 0.900891064,1.51381818 0.900891064,1.51381818 L0.675431489,0.0986363636 Z" id="Fill-1" fill="#263746"></path>
                </g>
            </g>
        </g>
    </g>
</svg>