<?xml version="1.0" encoding="UTF-8" standalone="no"?>
<svg width="23px" height="19px" viewBox="0 0 23 19" version="1.1" xmlns="http://www.w3.org/2000/svg" xmlns:xlink="http://www.w3.org/1999/xlink">
    <!-- Generator: Sketch 39.1 (31720) - http://www.bohemiancoding.com/sketch -->
    <title>Twitter</title>
    <desc>Created with Sketch.</desc>
    <defs></defs>
    <g id="Page-1" stroke="none" stroke-width="1" fill="none" fill-rule="evenodd">
        <g id="Sign-in/Sign-up" transform="translate(-197.000000, -635.000000)" fill="#24A9E6">
            <path d="M219.171029,635.351254 C218.266412,635.900356 217.266829,636.299702 216.198456,636.513985 C215.34741,635.581974 214.131108,635 212.784531,635 C210.20339,635 208.108648,637.147704 208.108648,639.796418 C208.108648,640.172631 208.148826,640.537279 208.229182,640.888533 C204.341642,640.688251 200.895454,638.781007 198.587037,635.875396 C198.184038,636.586428 197.953927,637.411297 197.953927,638.289738 C197.953927,639.952869 198.779405,641.421198 200.035276,642.281375 C199.269456,642.258242 198.546858,642.040306 197.914966,641.683573 L197.914966,641.742014 C197.914966,644.066867 199.52757,646.006376 201.669187,646.445292 C201.277146,646.557912 200.863189,646.614527 200.436449,646.614527 C200.135113,646.614527 199.841082,646.585306 199.556182,646.529301 C200.151549,648.43411 201.877992,649.821473 203.925251,649.858608 C202.324821,651.145526 200.306783,651.912563 198.115857,651.912563 C197.738426,651.912563 197.365256,651.890648 197,651.846817 C199.069783,653.205569 201.529781,654 204.170581,654 C212.7754,654 217.479286,646.692448 217.479286,640.353433 C217.479286,640.144628 217.475634,639.936433 217.46772,639.731889 C218.381468,639.055557 219.175291,638.211208 219.799878,637.249367 C218.962225,637.630451 218.060043,637.888565 217.11403,638.004229 C218.080132,637.411297 218.821601,636.471372 219.171029,635.351254" id="Twitter"></path>
        </g>
    </g>
</svg>