<?xml version="1.0" encoding="UTF-8" standalone="no"?>
<svg width="18px" height="20px" viewBox="0 0 18 20" version="1.1" xmlns="http://www.w3.org/2000/svg" xmlns:xlink="http://www.w3.org/1999/xlink">
    <!-- Generator: Sketch 39.1 (31720) - http://www.bohemiancoding.com/sketch -->
    <title>Shape</title>
    <desc>Created with Sketch.</desc>
    <defs></defs>
    <g id="Page-1" stroke="none" stroke-width="1" fill="none" fill-rule="evenodd">
        <g id="Dashboard" transform="translate(-149.000000, -677.000000)" fill="#263746">
            <g id="Buttom-Nav" transform="translate(0.000000, 663.000000)">
                <path d="M162.72549,23 L152.921569,23 L152.921569,25 L162.72549,25 L162.72549,23 L162.72549,23 Z M164.686275,16 L163.705882,16 L163.705882,14 L161.745098,14 L161.745098,16 L153.901961,16 L153.901961,14 L151.941176,14 L151.941176,16 L150.960784,16 C149.872549,16 149.009804,16.9 149.009804,18 L149,32 C149,33.1 149.872549,34 150.960784,34 L164.686275,34 C165.764706,34 166.647059,33.1 166.647059,32 L166.647059,18 C166.647059,16.9 165.764706,16 164.686275,16 L164.686275,16 Z M164.686275,32 L150.960784,32 L150.960784,21 L164.686275,21 L164.686275,32 L164.686275,32 Z M159.784314,27 L152.921569,27 L152.921569,29 L159.784314,29 L159.784314,27 L159.784314,27 Z" id="Shape"></path>
            </g>
        </g>
    </g>
</svg>